{
	"name"        : "blueprint-compiler",
	"buildsystem" : "meson",
	"cleanup"     : ["*"],
	"sources": [{
		"type" : "git",
		"url"  : "https://gitlab.gnome.org/jwestman/blueprint-compiler",
		"tag"  : "v0.12.0"
	}]
}
