<?xml version="1.0" encoding="UTF-8" standalone="no"?>
<svg
   width="128px"
   height="128px"
   viewBox="0 0 128 128"
   version="1.1"
   id="svg12"
   sodipodi:docname="windows.svg"
   xml:space="preserve"
   inkscape:version="1.3.2 (091e20ef0f, 2023-11-25)"
   inkscape:export-filename="../../../../../cz.erindesu.DeployNT.png"
   inkscape:export-xdpi="768"
   inkscape:export-ydpi="768"
   xmlns:inkscape="http://www.inkscape.org/namespaces/inkscape"
   xmlns:sodipodi="http://sodipodi.sourceforge.net/DTD/sodipodi-0.dtd"
   xmlns:xlink="http://www.w3.org/1999/xlink"
   xmlns="http://www.w3.org/2000/svg"
   xmlns:svg="http://www.w3.org/2000/svg"><sodipodi:namedview
     id="namedview12"
     pagecolor="#ffffff"
     bordercolor="#000000"
     borderopacity="0.25"
     inkscape:showpageshadow="2"
     inkscape:pageopacity="0.0"
     inkscape:pagecheckerboard="0"
     inkscape:deskcolor="#d1d1d1"
     inkscape:zoom="4.3718781"
     inkscape:cx="42.430277"
     inkscape:cy="68.963496"
     inkscape:window-width="1920"
     inkscape:window-height="1011"
     inkscape:window-x="0"
     inkscape:window-y="0"
     inkscape:window-maximized="1"
     inkscape:current-layer="svg12" /><defs
     id="defs8"><inkscape:path-effect
       effect="fillet_chamfer"
       id="path-effect642"
       is_visible="true"
       lpeversion="1"
       nodesatellites_param="F,0,0,1,0,1.5,0,1 @ F,0,0,1,0,1.5,0,1 @ F,0,0,1,0,1.5,0,1"
       radius="0"
       unit="px"
       method="auto"
       mode="F"
       chamfer_steps="1"
       flexible="false"
       use_knot_distance="true"
       apply_no_radius="true"
       apply_with_radius="true"
       only_selected="false"
       hide_knots="false" /><inkscape:path-effect
       effect="fillet_chamfer"
       id="path-effect640"
       is_visible="true"
       lpeversion="1"
       nodesatellites_param="F,0,0,1,0,1.5,0,1 @ F,0,0,1,0,1.5,0,1 @ F,0,0,1,0,0,0,1 @ F,0,0,1,0,0,0,1"
       radius="0"
       unit="px"
       method="auto"
       mode="F"
       chamfer_steps="1"
       flexible="false"
       use_knot_distance="true"
       apply_no_radius="true"
       apply_with_radius="true"
       only_selected="false"
       hide_knots="false" /><inkscape:path-effect
       effect="fillet_chamfer"
       id="path-effect639"
       is_visible="true"
       lpeversion="1"
       nodesatellites_param="F,0,0,1,0,1.5,0,1 @ F,0,0,1,0,1.5,0,1 @ F,0,0,1,0,1.5,0,1"
       radius="0"
       unit="px"
       method="auto"
       mode="F"
       chamfer_steps="1"
       flexible="false"
       use_knot_distance="true"
       apply_no_radius="true"
       apply_with_radius="true"
       only_selected="false"
       hide_knots="false" /><linearGradient
       id="linearGradient1"
       inkscape:collect="always"><stop
         style="stop-color:#1a5db2;stop-opacity:1;"
         offset="0"
         id="stop4" /><stop
         style="stop-color:#2e79d6;stop-opacity:1;"
         offset="0.035"
         id="stop5" /><stop
         style="stop-color:#195fb3;stop-opacity:1;"
         offset="0.08"
         id="stop6" /><stop
         style="stop-color:#1a5fb2;stop-opacity:1;"
         offset="0.92000002"
         id="stop8" /><stop
         style="stop-color:#3380df;stop-opacity:1;"
         offset="0.95999998"
         id="stop7" /><stop
         style="stop-color:#1a5eb2;stop-opacity:1;"
         offset="1"
         id="stop2" /></linearGradient><filter
       id="alpha"
       filterUnits="objectBoundingBox"
       x="0"
       y="0"
       width="1"
       height="1"><feColorMatrix
         type="matrix"
         in="SourceGraphic"
         values="0 0 0 0 1 0 0 0 0 1 0 0 0 0 1 0 0 0 1 0"
         id="feColorMatrix1" /></filter><mask
       id="mask0"><g
         filter="url(#alpha)"
         id="g1"><rect
           x="0"
           y="0"
           width="128"
           height="128"
           style="fill:rgb(0%,0%,0%);fill-opacity:0.1;stroke:none;"
           id="rect1" /></g></mask><clipPath
       id="clip1"><rect
         x="0"
         y="0"
         width="192"
         height="152"
         id="rect2" /></clipPath><g
       id="surface10632"
       clip-path="url(#clip1)"><path
         style="fill:none;stroke-width:0.99;stroke-linecap:butt;stroke-linejoin:miter;stroke:rgb(0%,0%,0%);stroke-opacity:1;stroke-dasharray:0.99,0.99;stroke-miterlimit:4;"
         d="M 123.503906 236 C 123.503906 268.863281 96.863281 295.503906 64 295.503906 C 31.136719 295.503906 4.496094 268.863281 4.496094 236 C 4.496094 203.136719 31.136719 176.496094 64 176.496094 C 96.863281 176.496094 123.503906 203.136719 123.503906 236 Z M 123.503906 236 "
         transform="matrix(1,0,0,1,8,-156)"
         id="path2" /></g><mask
       id="mask1"><g
         filter="url(#alpha)"
         id="g3"><rect
           x="0"
           y="0"
           width="128"
           height="128"
           style="fill:rgb(0%,0%,0%);fill-opacity:0.1;stroke:none;"
           id="rect3" /></g></mask><clipPath
       id="clip2"><rect
         x="0"
         y="0"
         width="192"
         height="152"
         id="rect4" /></clipPath><g
       id="surface10635"
       clip-path="url(#clip2)"><path
         style="fill:none;stroke-width:0.99;stroke-linecap:butt;stroke-linejoin:miter;stroke:rgb(0%,0%,0%);stroke-opacity:1;stroke-dasharray:0.99,0.99;stroke-miterlimit:4;"
         d="M 29.195312 180.496094 L 98.804688 180.496094 C 103.609375 180.496094 107.503906 184.046875 107.503906 188.425781 L 107.503906 283.574219 C 107.503906 287.953125 103.609375 291.503906 98.804688 291.503906 L 29.195312 291.503906 C 24.390625 291.503906 20.496094 287.953125 20.496094 283.574219 L 20.496094 188.425781 C 20.496094 184.046875 24.390625 180.496094 29.195312 180.496094 Z M 29.195312 180.496094 "
         transform="matrix(1,0,0,1,8,-156)"
         id="path4" /></g><mask
       id="mask2"><g
         filter="url(#alpha)"
         id="g5"><rect
           x="0"
           y="0"
           width="128"
           height="128"
           style="fill:rgb(0%,0%,0%);fill-opacity:0.1;stroke:none;"
           id="rect5" /></g></mask><clipPath
       id="clip3"><rect
         x="0"
         y="0"
         width="192"
         height="152"
         id="rect6" /></clipPath><g
       id="surface10638"
       clip-path="url(#clip3)"><path
         style="fill:none;stroke-width:0.99;stroke-linecap:butt;stroke-linejoin:miter;stroke:rgb(0%,0%,0%);stroke-opacity:1;stroke-dasharray:0.99,0.99;stroke-miterlimit:4;"
         d="M 20.417969 184.496094 L 107.582031 184.496094 C 111.957031 184.496094 115.503906 188.042969 115.503906 192.417969 L 115.503906 279.582031 C 115.503906 283.957031 111.957031 287.503906 107.582031 287.503906 L 20.417969 287.503906 C 16.042969 287.503906 12.496094 283.957031 12.496094 279.582031 L 12.496094 192.417969 C 12.496094 188.042969 16.042969 184.496094 20.417969 184.496094 Z M 20.417969 184.496094 "
         transform="matrix(1,0,0,1,8,-156)"
         id="path6" /></g><mask
       id="mask3"><g
         filter="url(#alpha)"
         id="g7"><rect
           x="0"
           y="0"
           width="128"
           height="128"
           style="fill:rgb(0%,0%,0%);fill-opacity:0.1;stroke:none;"
           id="rect7" /></g></mask><clipPath
       id="clip4"><rect
         x="0"
         y="0"
         width="192"
         height="152"
         id="rect8" /></clipPath><g
       id="surface10641"
       clip-path="url(#clip4)"><path
         style="fill:none;stroke-width:0.99;stroke-linecap:butt;stroke-linejoin:miter;stroke:rgb(0%,0%,0%);stroke-opacity:1;stroke-dasharray:0.99,0.99;stroke-miterlimit:4;"
         d="M 16.425781 200.496094 L 111.574219 200.496094 C 115.953125 200.496094 119.503906 204.390625 119.503906 209.195312 L 119.503906 278.804688 C 119.503906 283.609375 115.953125 287.503906 111.574219 287.503906 L 16.425781 287.503906 C 12.046875 287.503906 8.496094 283.609375 8.496094 278.804688 L 8.496094 209.195312 C 8.496094 204.390625 12.046875 200.496094 16.425781 200.496094 Z M 16.425781 200.496094 "
         transform="matrix(1,0,0,1,8,-156)"
         id="path8" /></g><radialGradient
       id="o"
       cx="28.000042"
       cy="14.93937"
       r="2.7513039"
       xlink:href="#h"
       gradientTransform="translate(0,6)" /><linearGradient
       id="h"
       gradientUnits="userSpaceOnUse"><stop
         offset="0"
         stop-color="#949390"
         id="stop28" /><stop
         offset="1"
         stop-color="#424048"
         id="stop29" /></linearGradient><radialGradient
       id="n"
       cx="27.99999"
       cy="14.8951"
       r="4"
       xlink:href="#f"
       gradientTransform="translate(0,6)" /><linearGradient
       id="f"
       gradientUnits="userSpaceOnUse"><stop
         offset="0"
         stop-opacity="0.25098"
         id="stop26" /><stop
         offset="1"
         stop-opacity="0.031373"
         id="stop27" /></linearGradient><radialGradient
       id="m"
       cx="100.00004"
       cy="14.93937"
       r="2.7513039"
       xlink:href="#h"
       gradientTransform="translate(0,6)" /><radialGradient
       id="l"
       cx="99.999992"
       cy="14.8951"
       r="4"
       xlink:href="#f"
       gradientTransform="translate(0,6)" /><radialGradient
       id="k"
       cx="100.00004"
       cy="104.93937"
       r="2.7513039"
       xlink:href="#h"
       gradientTransform="translate(0,6)" /><radialGradient
       id="j"
       cx="99.999992"
       cy="104.8951"
       r="4"
       xlink:href="#f"
       gradientTransform="translate(0,6)" /><radialGradient
       id="i"
       cx="28.104889"
       cy="105.27129"
       r="2.0779841"
       xlink:href="#h"
       gradientTransform="translate(0,6)" /><radialGradient
       id="g"
       cx="35.999989"
       cy="104.8951"
       r="4"
       xlink:href="#f"
       gradientTransform="translate(0,6)" /><linearGradient
       id="e"
       gradientUnits="userSpaceOnUse"
       x1="71.737076"
       x2="58.449963"
       y1="55.185486"
       y2="32.171528"
       gradientTransform="translate(0,6)"><stop
         offset="0"
         stop-color="#dfddd9"
         id="stop24" /><stop
         offset="1"
         stop-color="#f9f9f8"
         id="stop25" /></linearGradient><radialGradient
       id="d"
       cx="112.04205"
       cy="132.15182"
       gradientTransform="matrix(0.573927,-0.480654,0.340622,0.406722,-24.35643,107.86638)"
       gradientUnits="userSpaceOnUse"
       r="144"><stop
         offset="0"
         stop-color="#d5d3cf"
         id="stop15" /><stop
         offset="0.129392"
         stop-color="#949390"
         id="stop16" /><stop
         offset="0.257694"
         stop-color="#d5d3cf"
         id="stop17" /><stop
         offset="0.334113"
         stop-color="#deddda"
         id="stop18" /><stop
         offset="0.446104"
         stop-color="#949390"
         id="stop19" /><stop
         offset="0.51534"
         stop-color="#deddda"
         id="stop20" /><stop
         offset="0.657589"
         stop-color="#f6f5f4"
         id="stop21" /><stop
         offset="0.809046"
         stop-color="#949390"
         id="stop22" /><stop
         offset="1"
         stop-color="#ffffff"
         id="stop23" /></radialGradient><linearGradient
       id="c"
       gradientUnits="userSpaceOnUse"
       x1="68.000008"
       x2="68.000008"
       y1="2.249954"
       y2="106.24995"
       gradientTransform="translate(0,6)"><stop
         offset="0"
         stop-color="#deddda"
         id="stop13" /><stop
         offset="1"
         stop-color="#f6f5f4"
         id="stop14" /></linearGradient><linearGradient
       id="b"
       gradientTransform="matrix(0.25,0,0,0.243056,-16,-74.435722)"
       gradientUnits="userSpaceOnUse"
       x1="177"
       x2="496"
       y1="619.96387"
       y2="619.96387"><stop
         offset="0"
         stop-color="#424048"
         id="stop30" /><stop
         offset="0.0470219"
         stop-color="#f6f5f4"
         id="stop31" /><stop
         offset="0.0971787"
         stop-color="#949390"
         id="stop32" /><stop
         offset="0.899687"
         stop-color="#d5d3cf"
         id="stop33" /><stop
         offset="0.949843"
         stop-color="#f6f5f4"
         id="stop34" /><stop
         offset="1"
         stop-color="#424048"
         id="stop35" /></linearGradient><linearGradient
       id="a"
       gradientTransform="matrix(0.25,0,0,0.243056,-16,-74.435722)"
       gradientUnits="userSpaceOnUse"
       x1="176"
       x2="494.99994"
       y1="799.96387"
       y2="799.96387"><stop
         offset="0"
         id="stop36" /><stop
         offset="0.0470219"
         stop-color="#424048"
         id="stop37" /><stop
         offset="0.0971787"
         stop-color="#241f31"
         id="stop38" /><stop
         offset="0.899687"
         stop-color="#241f31"
         id="stop39" /><stop
         offset="0.949843"
         stop-color="#424048"
         id="stop40" /><stop
         offset="1"
         id="stop41" /></linearGradient><linearGradient
       inkscape:collect="always"
       xlink:href="#linearGradient1"
       id="linearGradient10"
       gradientUnits="userSpaceOnUse"
       gradientTransform="matrix(1,0,0,1.0833334,0,-5.586067)"
       x1="48"
       y1="56.964066"
       x2="63"
       y2="56.964066" /><linearGradient
       inkscape:collect="always"
       xlink:href="#linearGradient1"
       id="linearGradient204"
       gradientUnits="userSpaceOnUse"
       gradientTransform="matrix(1,0,0,1.0833334,0,-5.586067)"
       x1="48"
       y1="56.964066"
       x2="63"
       y2="56.964066" /><linearGradient
       inkscape:collect="always"
       xlink:href="#linearGradient1"
       id="linearGradient208"
       gradientUnits="userSpaceOnUse"
       gradientTransform="matrix(1,0,0,1.0833334,0,-5.586067)"
       x1="48"
       y1="56.964066"
       x2="63"
       y2="56.964066" /><linearGradient
       inkscape:collect="always"
       xlink:href="#linearGradient1"
       id="linearGradient209"
       gradientUnits="userSpaceOnUse"
       gradientTransform="matrix(1,0,0,1.0833334,0,-5.586067)"
       x1="48"
       y1="56.964066"
       x2="63"
       y2="56.964066" /></defs><g
     id="g209"
     transform="matrix(2.4347826,0,0,2.4347826,-84.521739,-111.30435)"
     inkscape:label="Windows"><g
       id="g8-2"
       inkscape:label="window"
       transform="matrix(1.4,0,0,1.4,-29.2,-19.95)"><rect
         style="fill:url(#linearGradient10);stroke-width:0.975781"
         id="rect12-6-8"
         width="15"
         height="16.25"
         x="48"
         y="48"
         ry="1.5651751" /><rect
         style="fill:#3583e3;fill-opacity:1;stroke-width:0.9375"
         id="rect12-9"
         width="15"
         height="15"
         x="48"
         y="48"
         ry="1.444777" /></g><g
       id="g204"
       inkscape:label="window"
       transform="matrix(1.4,0,0,1.4,-4.2,-19.95)"><rect
         style="fill:url(#linearGradient204);stroke-width:0.975781"
         id="rect203"
         width="15"
         height="16.25"
         x="48"
         y="48"
         ry="1.5651751" /><rect
         style="fill:#3583e3;fill-opacity:1;stroke-width:0.9375"
         id="rect204"
         width="15"
         height="15"
         x="48"
         y="48"
         ry="1.444777" /></g><g
       id="g206"
       inkscape:label="window"
       transform="matrix(1.4,0,0,1.4,-29.2,6.8)"><rect
         style="fill:url(#linearGradient209);stroke-width:0.975781"
         id="rect205"
         width="15"
         height="16.25"
         x="48"
         y="48"
         ry="1.5651751" /><rect
         style="fill:#3583e3;fill-opacity:1;stroke-width:0.9375"
         id="rect206"
         width="15"
         height="15"
         x="48"
         y="48"
         ry="1.444777" /></g><g
       id="g208"
       inkscape:label="window"
       transform="matrix(1.4,0,0,1.4,-4.2,6.8)"><rect
         style="fill:url(#linearGradient208);stroke-width:0.975781"
         id="rect207"
         width="15"
         height="16.25"
         x="48"
         y="48"
         ry="1.5651751" /><rect
         style="fill:#3583e3;fill-opacity:1;stroke-width:0.9375"
         id="rect208"
         width="15"
         height="15"
         x="48"
         y="48"
         ry="1.444777" /></g></g></svg>
