{
  "id": "cz.erindesu.DeployNT.Devel",
  "runtime": "org.gnome.Platform",
  "runtime-version": "47",
  "sdk": "org.gnome.Sdk",
  "sdk-extensions": [
    "org.freedesktop.Sdk.Extension.llvm18",
    "org.freedesktop.Sdk.Extension.rust-stable"
  ],
  "build-options": {
    "build-args": [
      "--share=network"
    ],
    "prepend-path": "/usr/lib/sdk/rust-stable/bin:/usr/lib/sdk/llvm18/bin"
  },
  "command": "deploynt",
  "finish-args": [
    "--share=ipc",
    "--socket=wayland",
    "--socket=fallback-x11",
    "--device=dri",
    "--share=network",
    "--system-talk-name=org.freedesktop.UDisks2",
    "--env=G_MESSAGES_DEBUG=all",
    "--env=RUST_BACKTRACE=1",
    "--env=G_MESSAGES_DEBUG=deploynt"
  ],
  "modules": [
    "deps/hivex.json",
    "deps/ntfs-3g.json",
    "deps/wimlib.json",
    "deps/blueprint-compiler.json",
    "deps/tombl.json",
    {
      "name": "deploynt",
      "buildsystem": "meson",
      "sources": [
        {
          "type": "dir",
          "path": "../"
        }
      ],
      "config-opts": [
        "-Dprofile=dev"
      ]
    }
  ]
}
